Kills
0
Steps
<<<<<<< HEAD:jGame/stats.txt
26
=======
62
>>>>>>> 33578adefbb6b1ab65dcc78bb2b60bde356a0da2:res/statistics/stats.txt
Projectile shoots
0
Time played
0
0
<<<<<<< HEAD:jGame/stats.txt
13
=======
10
>>>>>>> 33578adefbb6b1ab65dcc78bb2b60bde356a0da2:res/statistics/stats.txt
Max score
0
